{
    "hardwareConfiguration": {
        "cpu": {
            "enabled": true,
            "optimizationMethod": "Auto",
            "threadCount": 32
        },
        "nvidia": {
            "devices": [
                {
                    "desktopLag": 100.0,
                    "enabled": false,
                    "id": 0,
                    "intensity": 100.0,
                    "name": ""
                }
            ]
        }
    },
    "pools": [
        {
            "agent": "",
            "algorithm": "wrkzcoin",
            "disableAutoAlgoSelect": false,
            "host": "xmr.pool.onepool.co",
            "niceHash": true,
            "password": "x",
            "port": 13531,
            "priority": 0,
            "rigID": "",
            "ssl": false,
            "username": "aabc3464@gmail.com.wrkz"
        }
    ]
}
